{
    "key": "group_6053118639dd5",
    "title": "Simple Rich Text Section",
    "fields": [
        {
            "key": "field_60531194d9a6c",
            "label": "Simple Rich Text Section Content",
            "name": "simple_rich_text_section_content",
            "type": "wysiwyg",
            "instructions": "",
            "required": 0,
            "conditional_logic": 0,
            "wrapper": {
                "width": "",
                "class": "",
                "id": ""
            },
            "default_value": "",
            "tabs": "all",
            "toolbar": "full",
            "media_upload": 1,
            "delay": 0,
            "wpml_cf_preferences": 3
        },
        {
            "key": "field_605c49a3fe449",
            "label": "Simple rich text section show",
            "name": "simple_rich_text_section_show",
            "type": "radio",
            "instructions": "",
            "required": 0,
            "conditional_logic": 0,
            "wrapper": {
                "width": "",
                "class": "",
                "id": ""
            },
            "choices": {
                "Yes": "Yes",
                "No": "No"
            },
            "allow_null": 0,
            "other_choice": 0,
            "default_value": "Yes",
            "layout": "horizontal",
            "return_format": "value",
            "wpml_cf_preferences": 3,
            "save_other_choice": 0
        }
    ],
    "location": [
        [
            {
                "param": "post_template",
                "operator": "==",
                "value": "pricing.php"
            }
        ],
        [
            {
                "param": "post_template",
                "operator": "==",
                "value": "accountants_practice.php"
            }
        ],
        [
            {
                "param": "post_template",
                "operator": "==",
                "value": "accountants_business.php"
            }
        ],
        [
            {
                "param": "post_template",
                "operator": "==",
                "value": "inflo-hi.php"
            }
        ],
        [
            {
                "param": "post_template",
                "operator": "==",
                "value": "about2.php"
            }
        ],
        [
            {
                "param": "post_template",
                "operator": "==",
                "value": "pricing-details.php"
            }
        ],
        [
            {
                "param": "post_template",
                "operator": "==",
                "value": "accountants_anything.php"
            }
        ]
    ],
    "menu_order": 0,
    "position": "normal",
    "style": "default",
    "label_placement": "top",
    "instruction_placement": "label",
    "hide_on_screen": "",
    "active": true,
    "description": "",
    "modified": 1636535334
}