{
    "key": "group_603652dc7bfbd",
    "title": "Solution Top",
    "fields": [
        {
            "key": "field_60365306e7f09",
            "label": "Solution Title",
            "name": "solution_title",
            "type": "text",
            "instructions": "",
            "required": 0,
            "conditional_logic": 0,
            "wrapper": {
                "width": "",
                "class": "",
                "id": ""
            },
            "wpml_cf_preferences": 3,
            "default_value": "",
            "placeholder": "",
            "prepend": "",
            "append": "",
            "maxlength": ""
        },
        {
            "key": "field_60365333e7f0a",
            "label": "Solution Subtitle",
            "name": "solution_subtitle",
            "type": "text",
            "instructions": "",
            "required": 0,
            "conditional_logic": 0,
            "wrapper": {
                "width": "",
                "class": "",
                "id": ""
            },
            "wpml_cf_preferences": 3,
            "default_value": "",
            "placeholder": "",
            "prepend": "",
            "append": "",
            "maxlength": ""
        }
    ],
    "location": [
        [
            {
                "param": "page_template",
                "operator": "==",
                "value": "solution-child.php"
            }
        ],
        [
            {
                "param": "page_template",
                "operator": "==",
                "value": "accountants_practice.php"
            }
        ],
        [
            {
                "param": "page_template",
                "operator": "==",
                "value": "accountants_business.php"
            }
        ],
        [
            {
                "param": "page_template",
                "operator": "==",
                "value": "solutions-parent-new.php"
            }
        ],
        [
            {
                "param": "page_template",
                "operator": "==",
                "value": "inflo-hi.php"
            }
        ]
    ],
    "menu_order": 0,
    "position": "normal",
    "style": "default",
    "label_placement": "top",
    "instruction_placement": "label",
    "hide_on_screen": "",
    "active": true,
    "description": "",
    "modified": 1636535337
}