{
    "key": "group_603393d6efe82",
    "title": "Learn Use Case Section",
    "fields": [
        {
            "key": "field_603393f66ab06",
            "label": "Learn Use Case Title",
            "name": "learn_use_case_title",
            "type": "text",
            "instructions": "",
            "required": 0,
            "conditional_logic": 0,
            "wrapper": {
                "width": "",
                "class": "",
                "id": ""
            },
            "wpml_cf_preferences": 3,
            "default_value": "",
            "placeholder": "",
            "prepend": "",
            "append": "",
            "maxlength": ""
        },
        {
            "key": "field_6033940b6ab07",
            "label": "Show Most Recent",
            "name": "learn_use_case_show_most_recent",
            "type": "radio",
            "instructions": "",
            "required": 0,
            "conditional_logic": 0,
            "wrapper": {
                "width": "",
                "class": "",
                "id": ""
            },
            "choices": {
                "Yes": "Yes",
                "No": "No"
            },
            "allow_null": 0,
            "other_choice": 0,
            "default_value": "Yes",
            "layout": "horizontal",
            "return_format": "value",
            "wpml_cf_preferences": 3,
            "save_other_choice": 0
        },
        {
            "key": "field_603394936ab09",
            "label": "Learn Use Case Post 1",
            "name": "learn_use_case_post_1",
            "type": "post_object",
            "instructions": "",
            "required": 0,
            "conditional_logic": [
                [
                    {
                        "field": "field_6033940b6ab07",
                        "operator": "==",
                        "value": "No"
                    }
                ]
            ],
            "wrapper": {
                "width": "",
                "class": "",
                "id": ""
            },
            "wpml_cf_preferences": 3,
            "post_type": [
                "use_cases"
            ],
            "taxonomy": "",
            "allow_null": 0,
            "multiple": 0,
            "return_format": "object",
            "ui": 1
        },
        {
            "key": "field_603394f26ab0a",
            "label": "Learn Use Case Post 2",
            "name": "learn_use_case_post_2",
            "type": "post_object",
            "instructions": "",
            "required": 0,
            "conditional_logic": [
                [
                    {
                        "field": "field_6033940b6ab07",
                        "operator": "==",
                        "value": "No"
                    }
                ]
            ],
            "wrapper": {
                "width": "",
                "class": "",
                "id": ""
            },
            "wpml_cf_preferences": 3,
            "post_type": [
                "use_cases"
            ],
            "taxonomy": "",
            "allow_null": 0,
            "multiple": 0,
            "return_format": "object",
            "ui": 1
        },
        {
            "key": "field_603394f96ab0b",
            "label": "Learn Use Case Post 3",
            "name": "learn_use_case_post_3",
            "type": "post_object",
            "instructions": "",
            "required": 0,
            "conditional_logic": [
                [
                    {
                        "field": "field_6033940b6ab07",
                        "operator": "==",
                        "value": "No"
                    }
                ]
            ],
            "wrapper": {
                "width": "",
                "class": "",
                "id": ""
            },
            "wpml_cf_preferences": 3,
            "post_type": [
                "use_cases"
            ],
            "taxonomy": "",
            "allow_null": 0,
            "multiple": 0,
            "return_format": "object",
            "ui": 1
        },
        {
            "key": "field_603395066ab0c",
            "label": "Learn Use Case More Link",
            "name": "learn_use_case_more_link",
            "type": "page_link",
            "instructions": "",
            "required": 0,
            "conditional_logic": 0,
            "wrapper": {
                "width": "",
                "class": "",
                "id": ""
            },
            "wpml_cf_preferences": 3,
            "post_type": "",
            "taxonomy": "",
            "allow_null": 0,
            "allow_archives": 1,
            "multiple": 0
        }
    ],
    "location": [
        [
            {
                "param": "post_template",
                "operator": "==",
                "value": "learn.php"
            }
        ]
    ],
    "menu_order": 0,
    "position": "normal",
    "style": "default",
    "label_placement": "top",
    "instruction_placement": "label",
    "hide_on_screen": "",
    "active": true,
    "description": "",
    "modified": 1636535241
}