{
    "key": "group_6065cf1397578",
    "title": "Security Anchor Boxes",
    "fields": [
        {
            "key": "field_6065cf2685d0a",
            "label": "Anchor Box 1",
            "name": "anchor_box_1",
            "type": "wysiwyg",
            "instructions": "",
            "required": 0,
            "conditional_logic": 0,
            "wrapper": {
                "width": "",
                "class": "",
                "id": ""
            },
            "default_value": "",
            "tabs": "all",
            "toolbar": "full",
            "media_upload": 0,
            "delay": 0,
            "wpml_cf_preferences": 3
        },
        {
            "key": "field_6065cf7c85d0d",
            "label": "Anchor Box 2",
            "name": "anchor_box_2",
            "type": "wysiwyg",
            "instructions": "",
            "required": 0,
            "conditional_logic": 0,
            "wrapper": {
                "width": "",
                "class": "",
                "id": ""
            },
            "default_value": "",
            "tabs": "all",
            "toolbar": "full",
            "media_upload": 0,
            "delay": 0,
            "wpml_cf_preferences": 3
        },
        {
            "key": "field_6065cf7c85d0c",
            "label": "Anchor Box 3",
            "name": "anchor_box_3",
            "type": "wysiwyg",
            "instructions": "",
            "required": 0,
            "conditional_logic": 0,
            "wrapper": {
                "width": "",
                "class": "",
                "id": ""
            },
            "default_value": "",
            "tabs": "all",
            "toolbar": "full",
            "media_upload": 0,
            "delay": 0,
            "wpml_cf_preferences": 3
        },
        {
            "key": "field_6065cf7a85d0b",
            "label": "Anchor Box 4",
            "name": "anchor_box_4",
            "type": "wysiwyg",
            "instructions": "",
            "required": 0,
            "conditional_logic": 0,
            "wrapper": {
                "width": "",
                "class": "",
                "id": ""
            },
            "default_value": "",
            "tabs": "all",
            "toolbar": "full",
            "media_upload": 0,
            "delay": 0,
            "wpml_cf_preferences": 3
        }
    ],
    "location": [
        [
            {
                "param": "page_template",
                "operator": "==",
                "value": "inflo_security.php"
            }
        ]
    ],
    "menu_order": 0,
    "position": "normal",
    "style": "default",
    "label_placement": "top",
    "instruction_placement": "label",
    "hide_on_screen": "",
    "active": true,
    "description": "",
    "modified": 1636535334
}